{
  "project_info": {
    "project_number": "282272425394",
    "firebase_url": "https://ikiaralikzamaniydi.firebaseio.com",
    "project_id": "ikiaralikzamaniydi",
    "storage_bucket": "ikiaralikzamaniydi.appspot.com"
  },
  "client": [
    {
      "client_info": {
        "mobilesdk_app_id": "1:282272425394:android:2443b91099965ca1",
        "android_client_info": {
          "package_name": "com.example.yilmazlar.benimdengem"
        }
      },
      "oauth_client": [
        {
          "client_id": "282272425394-rm67bvodorcnl04f1b0sd5drhl2i4gr9.apps.googleusercontent.com",
          "client_type": 1,
          "android_info": {
            "package_name": "com.example.yilmazlar.benimdengem",
            "certificate_hash": "2D1A3E05BF859479F67477E886FA959DB3C293FE"
          }
        },
        {
          "client_id": "282272425394-t7cdrasabu1t25qm220je3pq6pr74j9k.apps.googleusercontent.com",
          "client_type": 3
        }
      ],
      "api_key": [
        {
          "current_key": "AIzaSyApzZ3Qlj_nk5UscmZT-UYZIm_6RVFy7Oo"
        }
      ],
      "services": {
        "analytics_service": {
          "status": 1
        },
        "appinvite_service": {
          "status": 2,
          "other_platform_oauth_client": [
            {
              "client_id": "282272425394-t7cdrasabu1t25qm220je3pq6pr74j9k.apps.googleusercontent.com",
              "client_type": 3
            }
          ]
        },
        "ads_service": {
          "status": 2
        }
      }
    }
  ],
  "configuration_version": "1"
}